<?xml version="1.0" encoding="iso-8859-1"?>
<!-- Generator: Adobe Illustrator 21.1.0, SVG Export Plug-In . SVG Version: 6.00 Build 0)  -->
<svg version="1.1" id="Layer_1" xmlns="http://www.w3.org/2000/svg" xmlns:xlink="http://www.w3.org/1999/xlink" x="0px" y="0px"
	 viewBox="0 0 60 55" style="enable-background:new 0 0 60 55;" xml:space="preserve">
<path style="fill:#81CFCB;" d="M53,25.583c0,0-15.25-0.917-16.417,0.083c-1.167,1-4.25,2.583-3.417,6.667
	c0.833,4.083,1.667,5.833,5.417,6.5c3.75,0.667,15.25-0.167,15.25-0.167L53,25.583z"/>
<g>
	<g>
		<path style="fill:#4F4F4F;" d="M53.46,24.16h-1.25v-8.44c0-1.98-1.56-3.54-3.44-3.54h-0.94V6.54C47.83,4.56,46.37,3,44.6,3
			c0,0-0.1,0-0.21,0L8.73,12.17c-0.01,0-0.03,0.01-0.04,0.01c-1.76,0.14-3.19,1.65-3.19,3.54v32.74C5.5,50.44,7.06,52,8.94,52h39.83
			c1.98,0,3.54-1.56,3.54-3.54V39.8h1.15c0.63,0,1.04-0.42,1.04-1.04V25.21C54.5,24.58,53.98,24.16,53.46,24.16z M44.8,4.98
			c0.52,0.1,1.04,0.73,1.04,1.56v5.63H17.07L44.8,4.98L44.8,4.98z M50.23,48.46c0,0.83-0.63,1.56-1.46,1.56H8.94
			c-0.83,0-1.46-0.73-1.46-1.56V15.72c0-0.83,0.63-1.56,1.46-1.56h39.72c0.83,0,1.46,0.73,1.46,1.56v8.44H39.8
			c-4.38,0-7.82,3.44-7.82,7.82c0,4.38,3.54,7.82,7.82,7.82h10.43V48.46L50.23,48.46z M52.41,37.82H39.8
			c-3.13,0-5.73-2.61-5.73-5.73s2.61-5.73,5.73-5.73h12.61V37.82z"/>
		<path style="fill:#4F4F4F;" d="M38.65,32.19c0,0.63,0.52,1.04,1.04,1.04h0.94c0.52,0,1.04-0.42,1.04-1.04
			c0-0.63-0.52-1.04-1.04-1.04H39.7C39.07,31.15,38.65,31.57,38.65,32.19z"/>
	</g>
</g>
<g>
</g>
<g>
</g>
<g>
</g>
<g>
</g>
<g>
</g>
<g>
</g>
</svg>
