<?xml version="1.0" encoding="iso-8859-1"?>
<!-- Generator: Adobe Illustrator 21.1.0, SVG Export Plug-In . SVG Version: 6.00 Build 0)  -->
<svg version="1.1" id="Layer_1" xmlns="http://www.w3.org/2000/svg" xmlns:xlink="http://www.w3.org/1999/xlink" x="0px" y="0px"
	 viewBox="0 0 60 55" style="enable-background:new 0 0 60 55;" xml:space="preserve">
<g>
	<circle style="fill:#81CFCB;" cx="30.046" cy="40.795" r="5"/>
	<g>
		<path style="fill:#454546;" d="M56.922,19.241C49.743,12.061,40.181,8.107,30,8.107S10.258,12.06,3.078,19.241
			c-0.388,0.388-0.388,1.014,0,1.402s1.014,0.388,1.402,0C11.285,13.836,20.349,10.089,30,10.089s18.715,3.748,25.52,10.553
			c0.193,0.193,0.447,0.29,0.701,0.29s0.507-0.097,0.701-0.29C57.31,20.255,57.31,19.628,56.922,19.241z"/>
		<path style="fill:#454546;" d="M8.904,25.067c-0.388,0.388-0.388,1.014,0,1.402c0.193,0.193,0.447,0.29,0.701,0.29
			s0.507-0.097,0.701-0.29c10.859-10.86,28.528-10.86,39.387,0c0.388,0.388,1.014,0.388,1.402,0c0.388-0.388,0.388-1.014,0-1.402
			C39.464,13.436,20.537,13.434,8.904,25.067z"/>
		<path style="fill:#454546;" d="M30,24.579c-5.774,0-11.196,2.243-15.268,6.315c-0.388,0.388-0.388,1.014,0,1.402
			s1.014,0.388,1.402,0c3.698-3.697,8.622-5.734,13.867-5.734s10.169,2.037,13.867,5.734c0.193,0.193,0.447,0.29,0.701,0.29
			c0.254,0,0.507-0.097,0.701-0.29c0.388-0.388,0.388-1.014,0-1.402C41.197,26.822,35.774,24.579,30,24.579z"/>
		<path style="fill:#454546;" d="M30,33.904c-3.58,0-6.493,2.913-6.493,6.494c0,3.581,2.913,6.494,6.493,6.494
			c3.581,0,6.494-2.913,6.494-6.494C36.494,36.817,33.581,33.904,30,33.904z M30,44.909c-2.488,0-4.511-2.024-4.511-4.512
			s2.024-4.512,4.511-4.512s4.512,2.024,4.512,4.512S32.488,44.909,30,44.909z"/>
	</g>
</g>
<g>
</g>
<g>
</g>
<g>
</g>
<g>
</g>
<g>
</g>
<g>
</g>
</svg>
